<?xml version="1.0" encoding="utf-8"?>
<!-- Generator: Adobe Illustrator 19.0.0, SVG Export Plug-In . SVG Version: 6.00 Build 0)  -->
<svg version="1.1" id="Layer_1" xmlns="http://www.w3.org/2000/svg" xmlns:xlink="http://www.w3.org/1999/xlink" x="0px" y="0px"
	 viewBox="0 0 52 52" style="enable-background:new 0 0 52 52;" xml:space="preserve">
<style type="text/css">
	.st0{fill-rule:evenodd;clip-rule:evenodd;fill:#E12F2E;}
</style>
<path id="XMLID_2_" class="st0" d="M15.2,34.6c-1.8-2.4-3.3-4.7-4.5-6.8c-1.7-3.2-3.3-6.9-4-10.5C6,12.7,7.6,7.5,10.5,4.9
	c7.6-6.7,15.3,8.6,10,12.5L18.4,19c-0.1,0.1-0.3,0.5-0.3,0.6c0.1,2.7,3.4,7.7,5.1,10c1.8,2.3,4.6,5.3,7.2,6.2c0.1,0,0.5,0,0.7-0.1
	l2.1-1.6c5.2-4,17.9,7.6,9.3,13.1c-3.3,2.1-8.8,2.3-13,0.2c-3.3-1.6-6.4-4.1-9-6.6C18.8,39.1,17,37,15.2,34.6"/>
</svg>
