<?xml version="1.0" encoding="utf-8"?>
<!-- Generator: Adobe Illustrator 19.0.0, SVG Export Plug-In . SVG Version: 6.00 Build 0)  -->
<svg version="1.1" id="Layer_1" xmlns="http://www.w3.org/2000/svg" xmlns:xlink="http://www.w3.org/1999/xlink" x="0px" y="0px"
	 viewBox="0 0 456 143" style="enable-background:new 0 0 456 143;" xml:space="preserve">
<style type="text/css">
	.st0{fill:#ED2224;}
</style>
<path class="st0" d="M9.6,110H0.4V56.2C0.7,50.5,2.9,45.5,7,41.4c4.4-4.4,9.7-6.5,15.9-6.5h24.7V44H22.9c-3.7,0-6.8,1.3-9.4,3.9
	c-2.6,2.6-3.9,5.7-3.9,9.4V110z M21.9,61.4h21v9.2H12.6V56.2h0.1c0.2-2.4,1.2-4.4,2.9-6.2c2-2,4.4-2.9,7.1-2.9h24.9v9.1H24.9
	c-0.8,0-1.5,0.3-2.1,0.9c-0.6,0.6-0.9,1.3-0.9,2.1V61.4z M21.8,83.4V110h-9.2V74.2h30.3v9.2H21.8z"/>
<path class="st0" d="M89,110c-10.4,0-19.2-3.7-26.6-11c-7.3-7.3-11-16.2-11-26.6c0-10.3,3.7-19.2,11-26.5c7.3-7.4,16.2-11,26.6-11
	c10.4,0,19.2,3.7,26.6,11c7.4,7.4,11.1,16.2,11.1,26.5c0,10.4-3.7,19.2-11.1,26.6C108.2,106.3,99.4,110,89,110 M89,44
	c-7.8,0-14.5,2.8-20.1,8.3c-5.6,5.5-8.3,12.2-8.3,20c0,7.9,2.8,14.6,8.3,20.2c5.6,5.5,12.3,8.3,20.1,8.3c7.8,0,14.5-2.8,20.1-8.3
	c5.6-5.5,8.3-12.3,8.3-20.2c0-7.8-2.8-14.5-8.3-20C103.5,46.8,96.8,44,89,44 M89,97.8c-7,0-12.9-2.5-17.9-7.4c-5-5-7.4-10.9-7.4-18
	c0-7,2.5-12.9,7.4-17.9c5-5,10.9-7.5,17.9-7.5c7,0,12.9,2.5,17.9,7.5c5,5,7.4,11,7.4,17.9c0,7-2.5,13-7.4,18
	C101.9,95.3,96,97.8,89,97.8 M89,56.1c-4.5,0-8.3,1.6-11.5,4.8c-3.2,3.2-4.8,7-4.8,11.5c0,4.5,1.6,8.4,4.8,11.5
	c3.2,3.2,7,4.8,11.5,4.8c4.5,0,8.3-1.6,11.5-4.8c3.2-3.2,4.8-7,4.8-11.5c0-4.5-1.6-8.3-4.8-11.5C97.3,57.7,93.4,56.1,89,56.1"/>
<path class="st0" d="M168,110c-10.4,0-19.2-3.7-26.6-11c-7.3-7.3-11-16.2-11-26.6c0-10.3,3.7-19.2,11-26.5c7.3-7.4,16.2-11,26.6-11
	c10.4,0,19.2,3.7,26.6,11c7.4,7.4,11.1,16.2,11.1,26.5c0,10.4-3.7,19.2-11.1,26.6C187.2,106.3,178.4,110,168,110 M168,44
	c-7.8,0-14.5,2.8-20.1,8.3c-5.6,5.5-8.3,12.2-8.3,20c0,7.9,2.8,14.6,8.3,20.2c5.6,5.5,12.3,8.3,20.1,8.3c7.8,0,14.5-2.8,20.1-8.3
	c5.6-5.5,8.3-12.3,8.3-20.2c0-7.8-2.8-14.5-8.3-20C182.5,46.8,175.8,44,168,44 M168,97.8c-7,0-12.9-2.5-17.9-7.4
	c-5-5-7.4-10.9-7.4-18c0-7,2.5-12.9,7.4-17.9c5-5,10.9-7.5,17.9-7.5c7,0,12.9,2.5,17.9,7.5c5,5,7.4,11,7.4,17.9c0,7-2.5,13-7.4,18
	C180.9,95.3,175,97.8,168,97.8 M168,56.1c-4.5,0-8.3,1.6-11.5,4.8c-3.2,3.2-4.8,7-4.8,11.5c0,4.5,1.6,8.4,4.8,11.5
	c3.2,3.2,7,4.8,11.5,4.8c4.5,0,8.3-1.6,11.5-4.8c3.2-3.2,4.8-7,4.8-11.5c0-4.5-1.6-8.3-4.8-11.5C176.3,57.7,172.5,56.1,168,56.1"/>
<path class="st0" d="M265,44h-55.6v-9.2H265V44z M235.7,110h-9.1V56.1h-17.2V47h26.3V110z M247.8,56.1V110h-9.2V47H265v9.1H247.8z"
	/>
<path class="st0" d="M268.7,87.6V34.8h9.2v52.8c0,3.7,1.3,6.8,3.9,9.4s5.7,3.9,9.4,3.9h29.5v9.2h-29.5c-6.2,0-11.4-2.2-15.8-6.6
	S268.7,93.8,268.7,87.6 M280.9,34.8h9.1v50.7c0,0.8,0.3,1.5,0.9,2.1c0.6,0.6,1.3,0.9,2.1,0.9h27.6v9.2h-29.8c-2.8,0-5.1-1-7.1-2.9
	c-2-2-2.9-4.3-2.9-7.1V34.8z"/>
<path class="st0" d="M378.8,47.7l20.4,62.3h-9.6l-19.8-60c-0.4-1.3-1.1-2.5-2.1-3.5c-1.6-1.6-3.6-2.4-5.9-2.4
	c-2.3,0-4.2,0.8-5.7,2.4c-1.1,1.1-1.8,2.3-2.2,3.6L334.1,110h-9.7l20.7-62.5c0.8-2.8,2.2-5.3,4.4-7.5c3.4-3.4,7.5-5.1,12.3-5.1
	c4.9,0,9,1.7,12.4,5.1C376.5,42.2,378,44.8,378.8,47.7 M379.5,88.7l7,21.3h-9.7l-4-12.2H351l-4,12.2h-9.7l7-21.3H379.5z M345.3,85.6
	l11.4-34.6c0.3-1,0.8-1.9,1.5-2.6c1-1,2.2-1.5,3.7-1.5c1.5,0,2.8,0.5,3.8,1.5c0.8,0.8,1.3,1.7,1.5,2.7c1.8,5.8,5.5,17.3,11.2,34.5
	H345.3z M365.8,76.5l-3.9-11.8L358,76.5H365.8z"/>
<path class="st0" d="M427.3,34.8c6.7,0,12.4,2.4,17.1,7.1c4.7,4.7,7.1,10.4,7.1,17c0,3.9-0.8,7.4-2.3,10.5
	c4.3,4.6,6.5,10.1,6.5,16.5c0,6.6-2.4,12.3-7.1,17c-4.7,4.7-10.4,7.1-17.1,7.1H403V34.8H427.3z M412.2,44v56.8h19.2
	c4.1,0,7.6-1.5,10.6-4.4c2.9-2.9,4.4-6.4,4.4-10.5c0-3.4-1-6.4-3-9c-0.5-0.6-0.9-1.1-1.4-1.6c-2-1.9-4.2-3.2-6.6-3.8
	c0.9-0.6,1.7-1.3,2.5-2c1.7-1.7,2.8-3.5,3.5-5.6c0.6-1.6,0.8-3.2,0.8-5c0-4.1-1.5-7.6-4.4-10.5c-2.9-2.9-6.4-4.4-10.6-4.4H412.2z
	 M415.2,46.9h12c3.3,0,6.1,1.2,8.5,3.5c2.4,2.3,3.5,5.2,3.5,8.5c0,3.3-1.2,6.1-3.5,8.5c-2.4,2.4-5.2,3.6-8.5,3.6h-12V46.9z
	 M431.3,73.8c3.3,0,6.1,1.2,8.5,3.5c2.4,2.4,3.5,5.2,3.5,8.5c0,3.3-1.2,6.1-3.5,8.4c-2.4,2.3-5.2,3.5-8.4,3.5l-0.1,0.1h-16.2v-24
	H431.3z M427.2,61.8c0.8,0,1.5-0.3,2.1-0.9c0.6-0.6,0.9-1.3,0.9-2.1c0-0.8-0.3-1.5-0.9-2c-0.6-0.6-1.3-0.8-2.1-0.8h-2.9v5.8H427.2z
	 M424.3,83v5.6h7c0.8,0,1.5-0.3,2-0.8c0.6-0.6,0.8-1.2,0.8-2c0-0.8-0.3-1.5-0.8-2c-0.6-0.6-1.2-0.8-2-0.8H424.3z"/>
</svg>
