<?xml version="1.0" encoding="utf-8"?>
<!-- Generator: Adobe Illustrator 19.0.0, SVG Export Plug-In . SVG Version: 6.00 Build 0)  -->
<svg version="1.1" id="Layer_1" xmlns="http://www.w3.org/2000/svg" xmlns:xlink="http://www.w3.org/1999/xlink" x="0px" y="0px"
	 viewBox="0 0 320 220" style="enable-background:new 0 0 320 220;" xml:space="preserve">
<style type="text/css">
	.st0{fill:#FCB415;}
	.st1{fill:#EE2A2A;}
	.st2{fill:#FFFFFF;}
</style>
<path class="st0" d="M132.5,19.9c33.2,8.4,59.3,34.6,67.7,67.7h8.8c-8.7-37.9-38.6-67.8-76.5-76.5V19.9z"/>
<path class="st1" d="M86.3,201.2c-33.7-8.6-60-35.5-67.9-69.5H9.6C17.8,170.4,48,201,86.3,210V201.2z"/>
<rect x="193.5" y="147.7" class="st2" width="2.8" height="16.3"/>
<polygon class="st2" points="212.7,164 209.9,164 202.6,152.5 202.6,164 199.8,164 199.8,147.7 202.6,147.7 209.9,159.3 
	209.9,147.7 212.7,147.7 "/>
<path class="st2" d="M224.6,159.8c0-0.7-0.3-1.3-0.8-1.7c-0.5-0.4-1.4-0.8-2.7-1.2c-1.3-0.4-2.4-0.8-3.1-1.3
	c-1.5-0.9-2.2-2.2-2.2-3.7c0-1.3,0.5-2.4,1.6-3.2c1.1-0.9,2.5-1.3,4.2-1.3c1.1,0,2.1,0.2,3,0.6c0.9,0.4,1.6,1,2.1,1.8
	c0.5,0.8,0.8,1.6,0.8,2.6h-2.8c0-0.9-0.3-1.5-0.8-2c-0.5-0.5-1.3-0.7-2.3-0.7c-0.9,0-1.6,0.2-2.2,0.6s-0.8,0.9-0.8,1.7
	c0,0.6,0.3,1.1,0.8,1.5c0.6,0.4,1.5,0.8,2.7,1.2c1.3,0.4,2.3,0.8,3.1,1.3c0.8,0.5,1.3,1,1.7,1.7c0.4,0.6,0.5,1.4,0.5,2.2
	c0,1.4-0.5,2.4-1.6,3.2c-1,0.8-2.5,1.2-4.2,1.2c-1.2,0-2.3-0.2-3.3-0.7c-1-0.4-1.8-1-2.3-1.8c-0.5-0.8-0.8-1.7-0.8-2.7h2.8
	c0,0.9,0.3,1.6,0.9,2.2c0.6,0.5,1.5,0.8,2.6,0.8c1,0,1.7-0.2,2.2-0.6C224.3,161,224.6,160.5,224.6,159.8"/>
<path class="st2" d="M232.7,158v6h-2.8v-16.3h6.2c1.8,0,3.3,0.5,4.3,1.4c1.1,1,1.6,2.2,1.6,3.8c0,1.6-0.5,2.8-1.6,3.7
	c-1.1,0.9-2.5,1.3-4.4,1.3H232.7z M232.7,155.7h3.4c1,0,1.8-0.2,2.3-0.7c0.5-0.5,0.8-1.2,0.8-2.1c0-0.9-0.3-1.6-0.8-2.1
	c-0.5-0.5-1.3-0.8-2.2-0.8h-3.5V155.7z"/>
<rect x="244.7" y="147.7" class="st2" width="2.8" height="16.3"/>
<path class="st2" d="M257,157.8h-3.2v6.3H251v-16.3h5.7c1.9,0,3.3,0.4,4.4,1.3c1,0.8,1.5,2.1,1.5,3.7c0,1.1-0.3,2-0.8,2.7
	c-0.5,0.7-1.3,1.3-2.2,1.7l3.7,6.8v0.1h-3L257,157.8z M253.9,155.5h2.9c1,0,1.7-0.2,2.2-0.7c0.5-0.5,0.8-1.1,0.8-2
	c0-0.9-0.2-1.5-0.7-2c-0.5-0.5-1.2-0.7-2.2-0.7h-3V155.5z"/>
<path class="st2" d="M274.5,160.2h-6.3l-1.3,3.8h-2.9l6.2-16.3h2.5l6.2,16.3h-3L274.5,160.2z M269,158h4.7l-2.4-6.8L269,158z"/>
<polygon class="st2" points="291.1,150 286,150 286,164 283.2,164 283.2,150 278.1,150 278.1,147.7 291.1,147.7 "/>
<path class="st2" d="M305.1,147.7v10.9c0,1.7-0.6,3.1-1.7,4.1c-1.1,1-2.6,1.5-4.4,1.5c-1.9,0-3.3-0.5-4.4-1.5
	c-1.1-1-1.6-2.4-1.6-4.2v-10.9h2.8v10.9c0,1.1,0.3,1.9,0.8,2.5c0.6,0.6,1.4,0.9,2.4,0.9c2.2,0,3.3-1.1,3.3-3.4v-10.8H305.1z"/>
<path class="st2" d="M316.7,159.8c0-0.7-0.3-1.3-0.8-1.7c-0.5-0.4-1.4-0.8-2.7-1.2c-1.3-0.4-2.4-0.8-3.1-1.3
	c-1.5-0.9-2.2-2.2-2.2-3.7c0-1.3,0.5-2.4,1.6-3.2c1.1-0.9,2.5-1.3,4.2-1.3c1.1,0,2.1,0.2,3,0.6c0.9,0.4,1.6,1,2.1,1.8
	c0.5,0.8,0.8,1.6,0.8,2.6h-2.8c0-0.9-0.3-1.5-0.8-2c-0.5-0.5-1.3-0.7-2.3-0.7c-0.9,0-1.6,0.2-2.2,0.6s-0.8,0.9-0.8,1.7
	c0,0.6,0.3,1.1,0.8,1.5c0.6,0.4,1.5,0.8,2.7,1.2c1.3,0.4,2.3,0.8,3.1,1.3c0.8,0.5,1.3,1,1.7,1.7c0.4,0.6,0.5,1.4,0.5,2.2
	c0,1.4-0.5,2.4-1.6,3.2c-1,0.8-2.5,1.2-4.2,1.2c-1.2,0-2.3-0.2-3.3-0.7c-1-0.4-1.8-1-2.3-1.8c-0.5-0.8-0.8-1.7-0.8-2.7h2.8
	c0,0.9,0.3,1.6,0.9,2.2c0.6,0.5,1.5,0.8,2.6,0.8c1,0,1.7-0.2,2.2-0.6C316.4,161,316.7,160.5,316.7,159.8"/>
<path class="st2" d="M201.8,187.4c0-0.7-0.3-1.3-0.8-1.7c-0.5-0.4-1.4-0.8-2.7-1.2c-1.3-0.4-2.4-0.8-3.1-1.3
	c-1.5-0.9-2.2-2.2-2.2-3.7c0-1.3,0.5-2.4,1.6-3.2c1.1-0.9,2.5-1.3,4.2-1.3c1.1,0,2.1,0.2,3,0.6c0.9,0.4,1.6,1,2.1,1.8
	c0.5,0.8,0.8,1.6,0.8,2.6h-2.8c0-0.9-0.3-1.5-0.8-2c-0.5-0.5-1.3-0.7-2.3-0.7c-0.9,0-1.6,0.2-2.2,0.6s-0.8,0.9-0.8,1.7
	c0,0.6,0.3,1.1,0.8,1.5c0.6,0.4,1.5,0.8,2.7,1.2c1.3,0.4,2.3,0.8,3.1,1.3c0.8,0.5,1.3,1,1.7,1.7c0.4,0.6,0.5,1.4,0.5,2.2
	c0,1.4-0.5,2.4-1.6,3.2c-1,0.8-2.5,1.2-4.2,1.2c-1.2,0-2.3-0.2-3.3-0.7c-1-0.4-1.8-1-2.3-1.8c-0.5-0.8-0.8-1.7-0.8-2.7h2.8
	c0,0.9,0.3,1.6,0.9,2.2c0.6,0.5,1.5,0.8,2.6,0.8c1,0,1.7-0.2,2.2-0.6C201.6,188.5,201.8,188,201.8,187.4"/>
<path class="st2" d="M210,185.5v6h-2.8v-16.3h6.2c1.8,0,3.3,0.5,4.3,1.4c1.1,0.9,1.6,2.2,1.6,3.8c0,1.6-0.5,2.8-1.6,3.7
	c-1,0.9-2.5,1.3-4.4,1.3H210z M210,183.2h3.4c1,0,1.8-0.2,2.3-0.7c0.5-0.5,0.8-1.2,0.8-2.1c0-0.9-0.3-1.6-0.8-2.1
	c-0.5-0.5-1.3-0.8-2.2-0.8H210V183.2z"/>
<path class="st2" d="M234.8,183.8c0,1.6-0.3,3-0.8,4.2c-0.6,1.2-1.3,2.1-2.4,2.8c-1,0.6-2.2,1-3.5,1c-1.3,0-2.5-0.3-3.5-1
	c-1-0.6-1.8-1.6-2.4-2.8c-0.6-1.2-0.8-2.6-0.9-4.1V183c0-1.6,0.3-3,0.8-4.2c0.6-1.2,1.4-2.1,2.4-2.8c1-0.6,2.2-1,3.5-1
	s2.5,0.3,3.5,1c1,0.6,1.8,1.6,2.4,2.8c0.6,1.2,0.8,2.6,0.9,4.2V183.8z M232,183c0-1.8-0.3-3.2-1-4.2c-0.7-1-1.7-1.4-2.9-1.4
	c-1.2,0-2.2,0.5-2.9,1.4c-0.7,1-1,2.3-1.1,4.1v0.9c0,1.8,0.3,3.2,1,4.2c0.7,1,1.7,1.5,2.9,1.5c1.3,0,2.2-0.5,2.9-1.4s1-2.4,1-4.2
	V183z"/>
<path class="st2" d="M243.6,185.3h-3.2v6.3h-2.8v-16.3h5.7c1.9,0,3.3,0.4,4.4,1.3c1,0.8,1.5,2.1,1.5,3.7c0,1.1-0.3,2-0.8,2.7
	c-0.5,0.7-1.3,1.3-2.2,1.7l3.7,6.8v0.1h-3L243.6,185.3z M240.5,183h2.9c1,0,1.7-0.2,2.2-0.7c0.5-0.5,0.8-1.1,0.8-2
	c0-0.9-0.2-1.5-0.7-2c-0.5-0.5-1.2-0.7-2.2-0.7h-3V183z"/>
<polygon class="st2" points="263.2,177.5 258.1,177.5 258.1,191.6 255.3,191.6 255.3,177.5 250.2,177.5 250.2,175.3 263.2,175.3 "/>
<path class="st2" d="M273.7,187.4c0-0.7-0.3-1.3-0.8-1.7c-0.5-0.4-1.4-0.8-2.7-1.2c-1.3-0.4-2.4-0.8-3.1-1.3
	c-1.5-0.9-2.2-2.2-2.2-3.7c0-1.3,0.5-2.4,1.6-3.2c1.1-0.9,2.5-1.3,4.2-1.3c1.1,0,2.1,0.2,3,0.6c0.9,0.4,1.6,1,2.1,1.8
	c0.5,0.8,0.8,1.6,0.8,2.6h-2.8c0-0.9-0.3-1.5-0.8-2c-0.5-0.5-1.3-0.7-2.3-0.7c-0.9,0-1.6,0.2-2.2,0.6s-0.8,0.9-0.8,1.7
	c0,0.6,0.3,1.1,0.8,1.5c0.6,0.4,1.5,0.8,2.7,1.2c1.3,0.4,2.3,0.8,3.1,1.3c0.8,0.5,1.3,1,1.7,1.7c0.4,0.6,0.5,1.4,0.5,2.2
	c0,1.4-0.5,2.4-1.6,3.2c-1,0.8-2.5,1.2-4.2,1.2c-1.2,0-2.3-0.2-3.3-0.7c-1-0.4-1.8-1-2.3-1.8c-0.5-0.8-0.8-1.7-0.8-2.7h2.8
	c0,0.9,0.3,1.6,0.9,2.2c0.6,0.5,1.5,0.8,2.6,0.8c1,0,1.7-0.2,2.2-0.6C273.4,188.5,273.7,188,273.7,187.4"/>
<path class="st2" d="M193.3,219.1v-16.3h4.8c1.4,0,2.7,0.3,3.8,1c1.1,0.6,2,1.6,2.6,2.7c0.6,1.2,0.9,2.5,0.9,4.1v0.8
	c0,1.5-0.3,2.9-0.9,4.1c-0.6,1.2-1.5,2.1-2.6,2.7s-2.4,1-3.9,1H193.3z M196.1,205.1v11.8h1.8c1.5,0,2.6-0.5,3.4-1.4
	c0.8-0.9,1.2-2.3,1.2-4v-0.9c0-1.8-0.4-3.1-1.2-4.1c-0.8-0.9-1.9-1.4-3.3-1.4H196.1z"/>
<rect x="208.5" y="202.8" class="st2" width="2.8" height="16.3"/>
<path class="st2" d="M223.3,214.9c0-0.7-0.3-1.3-0.8-1.7c-0.5-0.4-1.4-0.8-2.7-1.2c-1.3-0.4-2.4-0.8-3.1-1.3
	c-1.5-0.9-2.2-2.2-2.2-3.7c0-1.3,0.5-2.4,1.6-3.2c1.1-0.9,2.5-1.3,4.2-1.3c1.1,0,2.1,0.2,3,0.6c0.9,0.4,1.6,1,2.1,1.8
	c0.5,0.8,0.8,1.6,0.8,2.6h-2.8c0-0.9-0.3-1.5-0.8-2c-0.5-0.5-1.3-0.7-2.3-0.7c-0.9,0-1.6,0.2-2.2,0.6s-0.8,0.9-0.8,1.7
	c0,0.6,0.3,1.1,0.8,1.5c0.6,0.4,1.5,0.8,2.7,1.2c1.3,0.4,2.3,0.8,3.1,1.3c0.8,0.5,1.3,1,1.7,1.7c0.4,0.6,0.5,1.4,0.5,2.2
	c0,1.4-0.5,2.4-1.6,3.2c-1,0.8-2.5,1.2-4.2,1.2c-1.2,0-2.3-0.2-3.3-0.7c-1-0.4-1.8-1-2.3-1.8c-0.5-0.8-0.8-1.7-0.8-2.7h2.8
	c0,0.9,0.3,1.6,0.9,2.2c0.6,0.5,1.5,0.8,2.6,0.8c1,0,1.7-0.2,2.2-0.6C223,216.1,223.3,215.5,223.3,214.9"/>
<polygon class="st2" points="240.4,205.1 235.3,205.1 235.3,219.1 232.5,219.1 232.5,205.1 227.5,205.1 227.5,202.8 240.4,202.8 "/>
<path class="st2" d="M248.5,212.8h-3.2v6.3h-2.8v-16.3h5.7c1.9,0,3.3,0.4,4.4,1.3c1,0.8,1.5,2.1,1.5,3.7c0,1.1-0.3,2-0.8,2.7
	c-0.5,0.7-1.3,1.3-2.2,1.7l3.7,6.8v0.1h-3L248.5,212.8z M245.4,210.5h2.9c1,0,1.7-0.2,2.2-0.7c0.5-0.5,0.8-1.1,0.8-2
	c0-0.9-0.2-1.5-0.7-2c-0.5-0.5-1.2-0.7-2.2-0.7h-3V210.5z"/>
<rect x="257" y="202.8" class="st2" width="2.8" height="16.3"/>
<path class="st2" d="M275.8,213.8c-0.2,1.7-0.8,3.1-1.9,4.1c-1.1,1-2.6,1.5-4.5,1.5c-1.3,0-2.4-0.3-3.4-0.9c-1-0.6-1.8-1.5-2.3-2.6
	c-0.5-1.1-0.8-2.5-0.8-4v-1.5c0-1.5,0.3-2.9,0.8-4.1c0.5-1.2,1.3-2.1,2.3-2.7c1-0.6,2.2-1,3.5-1c1.8,0,3.2,0.5,4.3,1.5
	c1.1,1,1.7,2.4,1.9,4.1h-2.8c-0.1-1.2-0.5-2-1-2.5c-0.5-0.5-1.4-0.8-2.4-0.8c-1.2,0-2.2,0.5-2.8,1.4c-0.7,0.9-1,2.2-1,4v1.4
	c0,1.8,0.3,3.1,0.9,4c0.6,0.9,1.6,1.4,2.8,1.4c1.1,0,2-0.3,2.5-0.8c0.6-0.5,0.9-1.3,1.1-2.5H275.8z"/>
<polygon class="st2" points="289.7,205.1 284.7,205.1 284.7,219.1 281.8,219.1 281.8,205.1 276.8,205.1 276.8,202.8 289.7,202.8 "/>
<path class="st2" d="M178.2,109.6c0-13-10.5-23.5-23.5-23.5h-25.8l-8.6,10.6h31.9c7.2,0,13,5.8,13,13c0,7.2-5.8,13-13,13H146h-1.4
	v-1.4v-16.6h-14.4v28.5h24.6C167.7,133.1,178.2,122.6,178.2,109.6"/>
<rect x="47.1" y="104.6" class="st2" width="14.4" height="28.5"/>
<path class="st2" d="M85.1,86.1c-6.5,0-12.2,4.5-13.9,10.6h14.9h23.5l8.8-10.6H85.1z"/>
<path class="st2" d="M120.1,118.9c0-7.8-6.4-14.2-14.2-14.2H86.2c-0.1,0-0.3,0-0.3,0H71.4c1.8,6,7.3,10.2,13.7,10.2H104
	c2.2,0,3.9,1.8,3.9,3.9c0,2.2-1.8,3.9-3.9,3.9H79.5l-8.7,10.4h35.1C113.7,133.1,120.1,126.7,120.1,118.9"/>
<path class="st2" d="M11.7,97.7c-6.5,0-11.9,5.3-11.9,11.9s5.3,11.9,11.9,11.9c6.5,0,11.9-5.3,11.9-11.9S18.3,97.7,11.7,97.7"/>
<path class="st2" d="M206.2,97.7c-6.5,0-11.9,5.3-11.9,11.9s5.3,11.9,11.9,11.9c6.5,0,11.9-5.3,11.9-11.9S212.7,97.7,206.2,97.7"/>
<path class="st2" d="M97.1,206.8c0,6.5,5.3,11.9,11.9,11.9c6.5,0,11.9-5.3,11.9-11.9c0-6.5-5.3-11.9-11.9-11.9
	C102.4,195,97.1,200.3,97.1,206.8"/>
<path class="st2" d="M97.1,12.4c0,6.5,5.3,11.9,11.9,11.9c6.5,0,11.9-5.3,11.9-11.9c0-6.5-5.3-11.9-11.9-11.9
	C102.4,0.5,97.1,5.8,97.1,12.4"/>
<path class="st2" d="M61.8,91.5c0-4.1-3.4-7.5-7.5-7.5s-7.5,3.4-7.5,7.5c0,4.1,3.4,7.5,7.5,7.5S61.8,95.6,61.8,91.5"/>
</svg>
