<?xml version="1.0" encoding="utf-8"?>
<!-- Generator: Adobe Illustrator 25.0.1, SVG Export Plug-In . SVG Version: 6.00 Build 0)  -->
<svg version="1.1" id="Layer_1" xmlns="http://www.w3.org/2000/svg" xmlns:xlink="http://www.w3.org/1999/xlink" x="0px" y="0px"
	 viewBox="0 0 82.6 82.6" style="enable-background:new 0 0 82.6 82.6;" xml:space="preserve">
<style type="text/css">
	.st0{fill:#FFB400;}
	.st1{fill:#F72026;}
	.st2{fill:#FFFFFF;}
</style>
<g>
	<g>
		<path class="st0" d="M50,8.6c12.1,3.1,21.7,12.7,24.8,24.8H78c-3.2-13.9-14.1-24.8-28-28V8.6z"/>
		<path class="st1" d="M33.1,75c-12.3-3.2-22-13-24.9-25.4H5c3,14.2,14,25.4,28.1,28.7V75z"/>
	</g>
	<g>
		<path class="st2" d="M66.8,41.5c0-4.7-3.9-8.6-8.6-8.6h-9.5l-3.2,3.9h11.7c2.6,0,4.8,2.1,4.8,4.8s-2.1,4.8-4.8,4.8H55h-0.5v-0.5
			v-6.1h-5.3v10.4h9C62.9,50.1,66.8,46.2,66.8,41.5z"/>
	</g>
	<rect x="18.8" y="39.7" class="st2" width="5.3" height="10.4"/>
	<path class="st2" d="M32.7,32.9c-2.4,0-4.5,1.6-5.1,3.9h5.5h8.6l3.2-3.9H32.7z"/>
	<g>
		<path class="st2" d="M45.5,44.9c0-2.9-2.3-5.2-5.2-5.2h-7.2c-0.1,0-0.1,0-0.1,0h-5.3c0.7,2.2,2.7,3.7,5,3.7h6.9
			c0.8,0,1.4,0.6,1.4,1.4s-0.6,1.4-1.4,1.4h-9l-3.2,3.8h12.8C43.1,50.1,45.5,47.8,45.5,44.9z"/>
	</g>
	<path class="st2" d="M5.8,37.1c-2.4,0-4.3,1.9-4.3,4.3c0,2.4,1.9,4.3,4.3,4.3s4.3-1.9,4.3-4.3C10.1,39.1,8.2,37.1,5.8,37.1z"/>
	<path class="st2" d="M77,37.1c-2.4,0-4.3,1.9-4.3,4.3c0,2.4,1.9,4.3,4.3,4.3c2.4,0,4.3-1.9,4.3-4.3C81.3,39.1,79.4,37.1,77,37.1z"
		/>
	<path class="st2" d="M37.1,77.1c0,2.4,1.9,4.3,4.3,4.3c2.4,0,4.3-1.9,4.3-4.3c0-2.4-1.9-4.3-4.3-4.3C39,72.8,37.1,74.7,37.1,77.1z"
		/>
	<path class="st2" d="M37.1,5.9c0,2.4,1.9,4.3,4.3,4.3c2.4,0,4.3-1.9,4.3-4.3s-1.9-4.3-4.3-4.3C39,1.5,37.1,3.5,37.1,5.9z"/>
	<circle class="st2" cx="21.4" cy="35" r="2.7"/>
</g>
</svg>
